<svg xmlns="http://www.w3.org/2000/svg" width="50" height="40" viewBox="0 0 50 40">
    <g fill="none" fill-rule="evenodd">
        <g fill="#FFF" fill-rule="nonzero">
            <g>
                <g>
                    <path d="M52.113 118.84l-1.499-2-3.742 2.82 1.5 2 3.741-2.82zm4.858-.84c.997.004 1.972-.292 2.797-.85.525-.365.978-.822 1.337-1.35 1.126-1.699 1.126-3.9 0-5.6-.36-.529-.818-.987-1.347-1.35-1.098-.738-2.447-1.011-3.748-.758-1.3.254-2.446 1.012-3.183 2.108-1.039 1.528-1.147 3.5-.283 5.131.865 1.631 2.563 2.657 4.417 2.67h.01zm0-7.5c1.02-.008 1.942.596 2.338 1.53.395.933.185 2.012-.532 2.73-.718.72-1.801.938-2.743.552-.942-.386-1.557-1.299-1.557-2.312 0-1.373 1.113-2.489 2.494-2.5zm-37.106 12.1c-1.098-.738-2.447-1.011-3.748-.758-1.3.254-2.446 1.012-3.183 2.108-1.269 1.77-1.243 4.152.065 5.893 1.307 1.742 3.597 2.445 5.664 1.739 2.068-.706 3.44-2.659 3.395-4.832.005-.996-.29-1.971-.845-2.8-.362-.528-.82-.986-1.348-1.35zm-2.796 6.65c-1.02.008-1.942-.596-2.338-1.53-.396-.933-.185-2.011.532-2.73.718-.72 1.8-.937 2.743-.551.942.385 1.557 1.298 1.557 2.311 0 1.377-1.12 2.495-2.505 2.5h.01zm6.82-1.25h3.741v-2.5h-3.742v2.5zm36.583 6.46c-.226-.224-.472-.429-.735-.61-1.69-1.12-3.892-1.12-5.582 0-.258.172-.497.37-.714.59l-7.152-4.31c.446-1.072.675-2.22.674-3.38.01-2.312-.904-4.533-2.541-6.174-1.638-1.641-3.865-2.568-6.19-2.576-.85.013-1.695.151-2.505.41l-3.017-6.57c1.154-.945 1.825-2.353 1.83-3.84.006-.996-.289-1.97-.844-2.8-.363-.528-.82-.986-1.348-1.35-1.098-.738-2.447-1.011-3.748-.758-1.3.254-2.446 1.012-3.183 2.108-1.038 1.528-1.147 3.5-.283 5.131.865 1.631 2.563 2.657 4.417 2.67.307-.005.614-.036.916-.09l3.017 6.53c-3.24 2.118-4.702 6.094-3.603 9.791 1.1 3.697 4.504 6.242 8.381 6.268 2.624-.012 5.1-1.203 6.74-3.24l7.202 4.33c-.137.458-.209.932-.212 1.41 0 2.761 2.252 5 5.03 5 1.66 0 3.212-.826 4.134-2.2 1.125-1.699 1.125-3.901 0-5.6-.185-.262-.39-.51-.614-.74h-.07zm-30.971-24c-1.019.008-1.942-.596-2.337-1.53-.396-.933-.186-2.011.532-2.73.717-.72 1.8-.937 2.743-.551.942.385 1.557 1.298 1.557 2.311.022 1.377-1.08 2.513-2.465 2.54l-.03-.04zm8.731 22.5c-2.547.02-4.855-1.49-5.844-3.823-.989-2.334-.463-5.03 1.33-6.828 1.794-1.798 4.502-2.342 6.858-1.378 2.355.965 3.892 3.247 3.892 5.78.016 1.651-.628 3.242-1.792 4.422-1.164 1.18-2.752 1.851-4.414 1.867l-.03-.04zm18.71 7.5c-1.02.008-1.943-.596-2.338-1.53-.396-.933-.186-2.011.532-2.73.717-.72 1.8-.937 2.743-.551.942.385 1.557 1.298 1.557 2.311.022 1.377-1.08 2.513-2.465 2.54l-.03-.04z" transform="translate(-12 -290) translate(0 -1) translate(0 188)"/>
                </g>
            </g>
        </g>
    </g>
</svg>
